<?xml version="1.0" encoding="utf-8"?>
<!-- Generator: Adobe Illustrator 21.0.0, SVG Export Plug-In . SVG Version: 6.00 Build 0)  -->
<svg version="1.1" id="Layer_1" xmlns="http://www.w3.org/2000/svg" xmlns:xlink="http://www.w3.org/1999/xlink" x="0px" y="0px"
	 viewBox="0 0 581.3 144" style="enable-background:new 0 0 581.3 144;" xml:space="preserve">
<style type="text/css">
	.st0{fill:#F9F9F9;}
	.st1{fill:#242424;}
	.st2{fill:#294936;}
</style>
<title>sprzętujemy logo -white</title>
<g id="Layer_3">
	<path class="st0" d="M154,67.8V52.7h-2.2v16.2h18.8v25.5c0,0.5-0.2,0.9-0.5,1.2c-0.4,0.4-0.9,0.8-1.4,1c-0.7,0.3-1.3,0.5-2.1,0.7
		c-0.8,0.2-1.7,0.2-2.5,0.2h-22.5c-0.8,0-1.7-0.1-2.5-0.2c-0.7-0.1-1.4-0.4-2.1-0.7c-0.5-0.2-1-0.6-1.4-1c-0.3-0.3-0.5-0.8-0.5-1.2
		V76.1h16.7v15.2h2.2V75h-18.8V49.6c0-0.5,0.2-0.9,0.5-1.2c0.4-0.4,0.9-0.8,1.4-1c0.7-0.3,1.3-0.5,2.1-0.7c0.8-0.2,1.7-0.3,2.5-0.3
		h22.5c0.8,0,1.7,0.1,2.5,0.2c0.7,0.1,1.4,0.4,2.1,0.7c0.5,0.2,1,0.6,1.4,1c0.3,0.3,0.5,0.7,0.5,1.2v18.3L154,67.8z"/>
	<path class="st1" d="M204.3,46.7c0.7,0.1,1.4,0.4,2.1,0.7c0.5,0.2,1,0.6,1.4,1c0.3,0.3,0.5,0.7,0.5,1.2v44.7c0,0.5-0.2,0.9-0.5,1.2
		c-0.4,0.4-0.9,0.8-1.4,1c-0.7,0.3-1.3,0.5-2.1,0.7c-0.8,0.2-1.7,0.2-2.5,0.2h-12.3v21h-16.7v-72h29
		C202.6,46.5,203.5,46.6,204.3,46.7z M189.4,91.2h2.2V52.7h-2.2L189.4,91.2z"/>
	<path class="st0" d="M204.3,46.7c0.7,0.1,1.4,0.4,2.1,0.7c0.5,0.2,1,0.6,1.4,1c0.3,0.3,0.5,0.7,0.5,1.2v44.7c0,0.5-0.2,0.9-0.5,1.2
		c-0.4,0.4-0.9,0.8-1.4,1c-0.7,0.3-1.3,0.5-2.1,0.7c-0.8,0.2-1.7,0.2-2.5,0.2h-12.3v21h-16.7v-72h29
		C202.6,46.5,203.5,46.6,204.3,46.7z M189.4,91.2h2.2V52.7h-2.2L189.4,91.2z"/>
	<path class="st1" d="M241.9,46.7c0.7,0.1,1.4,0.4,2.1,0.7c0.5,0.2,1,0.6,1.4,1c0.3,0.3,0.5,0.7,0.5,1.2v26.8h-16.7V52.7h-2.2v44.8
		h-16.7v-51h29C240.3,46.5,241.1,46.6,241.9,46.7z"/>
	<path class="st0" d="M241.9,46.7c0.7,0.1,1.4,0.4,2.1,0.7c0.5,0.2,1,0.6,1.4,1c0.3,0.3,0.5,0.7,0.5,1.2v26.8h-16.7V52.7h-2.2v44.8
		h-16.7v-51h29C240.3,46.5,241.1,46.6,241.9,46.7z"/>
	<path class="st1" d="M264.7,91.2h2.2V76.1h16.7v21.4H248V68.9h18.8V52.7h-2.2v15.2H248V46.4h35.5V75h-18.8V91.2z"/>
	<path class="st0" d="M264.7,91.2h2.2V76.1h16.7v21.4H248V68.9h18.8V52.7h-2.2v15.2H248V46.4h35.5V75h-18.8V91.2z"/>
	<path class="st1" d="M317.2,46.7c0.7,0.1,1.4,0.4,2.1,0.7c0.5,0.2,1,0.6,1.4,1c0.3,0.3,0.5,0.7,0.5,1.2v25.5h-18.8v16.2h2.2V76.1
		h16.7v18.3c0,0.5-0.2,0.9-0.5,1.2c-0.4,0.4-0.9,0.8-1.4,1c-0.7,0.3-1.3,0.5-2.1,0.7c-0.8,0.2-1.7,0.2-2.5,0.2h-22.5
		c-0.8,0-1.7-0.1-2.5-0.2c-0.7-0.1-1.4-0.4-2.1-0.7c-0.5-0.2-1-0.6-1.4-1c-0.3-0.3-0.5-0.8-0.5-1.2V49.6c0-0.5,0.2-0.9,0.5-1.2
		c0.4-0.4,0.9-0.8,1.4-1c0.7-0.3,1.3-0.5,2.1-0.7c0.8-0.2,1.7-0.2,2.5-0.2h22.5C315.5,46.5,316.4,46.6,317.2,46.7z M304.5,68.9V52.7
		h-2.2v16.2H304.5z"/>
	<path class="st1" d="M342.1,52.7v38.6h2.1v6.2h-12.4c-0.8,0-1.7-0.1-2.5-0.2c-0.7-0.1-1.4-0.4-2-0.7c-0.5-0.2-1-0.6-1.4-1
		c-0.3-0.3-0.5-0.8-0.5-1.2V52.7h-2.2v-6.2h2.2v-21h16.7v21h2.1v6.2L342.1,52.7z"/>
	<path class="st0" d="M342.1,52.7v38.6h2.1v6.2h-12.4c-0.8,0-1.7-0.1-2.5-0.2c-0.7-0.1-1.4-0.4-2-0.7c-0.5-0.2-1-0.6-1.4-1
		c-0.3-0.3-0.5-0.8-0.5-1.2V52.7h-2.2v-6.2h2.2v-21h16.7v21h2.1v6.2L342.1,52.7z"/>
	<path class="st1" d="M381.9,97.4h-29c-0.8,0-1.7-0.1-2.5-0.2c-0.7-0.1-1.4-0.4-2.1-0.7c-0.5-0.2-1-0.6-1.4-1
		c-0.3-0.3-0.5-0.8-0.5-1.2V46.4h16.7v44.7h2.2V46.4h16.6L381.9,97.4z"/>
	<path class="st2" d="M381.9,97.4h-29c-0.8,0-1.7-0.1-2.5-0.2c-0.7-0.1-1.4-0.4-2.1-0.7c-0.5-0.2-1-0.6-1.4-1
		c-0.3-0.3-0.5-0.8-0.5-1.2V46.4h16.7v44.7h2.2V46.4h16.6L381.9,97.4z"/>
	<path class="st2" d="M402.8,46.4h16.6v69c0,0.5-0.2,0.9-0.5,1.2c-0.4,0.4-0.9,0.8-1.4,1c-0.7,0.3-1.3,0.5-2.1,0.7
		c-0.8,0.2-1.7,0.2-2.5,0.2h-22.5c-0.8,0-1.7-0.1-2.5-0.2c-0.7-0.1-1.4-0.4-2.1-0.7c-0.5-0.2-1-0.6-1.4-1c-0.3-0.3-0.5-0.7-0.5-1.2
		l0,0V75h16.6v37.3h2.2L402.8,46.4z M419.5,25.4v18.9h-16.6V25.4H419.5z"/>
	<path class="st1" d="M453.2,46.7c0.7,0.1,1.4,0.4,2.1,0.7c0.5,0.2,1,0.6,1.4,1c0.3,0.3,0.5,0.7,0.5,1.2v25.5h-18.8v16.2h2.2V76.1
		h16.6v18.3c0,0.5-0.2,0.9-0.5,1.2c-0.4,0.4-0.9,0.8-1.4,1c-0.7,0.3-1.3,0.5-2.1,0.7c-0.8,0.2-1.7,0.2-2.5,0.2h-22.5
		c-0.8,0-1.7-0.1-2.5-0.2c-0.7-0.1-1.4-0.4-2.1-0.7c-0.5-0.2-1-0.6-1.4-1c-0.3-0.3-0.5-0.8-0.5-1.2V49.6c0-0.5,0.2-0.9,0.5-1.2
		c0.4-0.4,0.9-0.8,1.4-1c0.7-0.3,1.3-0.5,2.1-0.7c0.8-0.2,1.7-0.2,2.5-0.2h22.5C451.5,46.5,452.3,46.6,453.2,46.7z M440.5,68.9V52.7
		h-2.2v16.2H440.5z"/>
	<path class="st2" d="M453.2,46.7c0.7,0.1,1.4,0.4,2.1,0.7c0.5,0.2,1,0.6,1.4,1c0.3,0.3,0.5,0.7,0.5,1.2v25.5h-18.8v16.2h2.2V76.1
		h16.6v18.3c0,0.5-0.2,0.9-0.5,1.2c-0.4,0.4-0.9,0.8-1.4,1c-0.7,0.3-1.3,0.5-2.1,0.7c-0.8,0.2-1.7,0.2-2.5,0.2h-22.5
		c-0.8,0-1.7-0.1-2.5-0.2c-0.7-0.1-1.4-0.4-2.1-0.7c-0.5-0.2-1-0.6-1.4-1c-0.3-0.3-0.5-0.8-0.5-1.2V49.6c0-0.5,0.2-0.9,0.5-1.2
		c0.4-0.4,0.9-0.8,1.4-1c0.7-0.3,1.3-0.5,2.1-0.7c0.8-0.2,1.7-0.2,2.5-0.2h22.5C451.5,46.5,452.3,46.6,453.2,46.7z M440.5,68.9V52.7
		h-2.2v16.2H440.5z"/>
	<path class="st1" d="M509.6,46.7c0.7,0.1,1.4,0.4,2.1,0.7c0.5,0.2,1,0.6,1.4,1c0.3,0.3,0.5,0.7,0.5,1.2v47.9h-16.6V52.7h-2.2v44.8
		h-16.6V52.7h-2.2v44.8h-16.6v-51h47.8C508,46.5,508.8,46.6,509.6,46.7z"/>
	<path class="st2" d="M509.6,46.7c0.7,0.1,1.4,0.4,2.1,0.7c0.5,0.2,1,0.6,1.4,1c0.3,0.3,0.5,0.7,0.5,1.2v47.9h-16.6V52.7h-2.2v44.8
		h-16.6V52.7h-2.2v44.8h-16.6v-51h47.8C508,46.5,508.8,46.6,509.6,46.7z"/>
	<path class="st2" d="M551.4,115.4c0,0.5-0.2,0.9-0.5,1.2c-0.4,0.4-0.9,0.8-1.4,1c-0.6,0.3-1.3,0.5-2,0.7c-0.8,0.2-1.7,0.2-2.5,0.2
		h-85.7v-6.2h75.5V97.4H516v-51h16.6v44.7h2.2V46.4h16.6L551.4,115.4L551.4,115.4z"/>
	<path class="st0" d="M321.1,75V49.6c0-0.5-0.2-0.9-0.5-1.2c-0.4-0.4-0.9-0.8-1.4-1c-0.7-0.3-1.3-0.5-2.1-0.7
		c-0.8-0.2-1.7-0.2-2.5-0.2h-22.5c-0.8,0-1.7,0.1-2.5,0.2c-0.7,0.1-1.4,0.4-2.1,0.7c-0.5,0.2-1,0.6-1.4,1c-0.3,0.3-0.5,0.7-0.5,1.2
		v44.7c0,0.5,0.2,0.9,0.5,1.2c0.4,0.4,0.9,0.8,1.4,1c0.7,0.3,1.3,0.5,2.1,0.7c0.8,0.2,1.7,0.2,2.5,0.2h19.8
		c-0.2,1.5-0.2,3.1-0.2,4.7c0.3,2.3,0.8,4.6,1.4,6.8h6.2v-2c0,0-1.6-1.2-1.5-6c0-1.6,0.6-3.2,1.5-4.5l0,0c0.5-0.2,0.9-0.5,1.3-0.9
		c0.3-0.3,0.5-0.8,0.5-1.2V76.1h-16.7v15.2h-2.2V75L321.1,75z M302.3,52.7h2.2v16.2h-2.2V52.7z"/>
	<path class="st2" d="M72.1,89.2c-0.9-0.2-1.8-0.3-2.8-0.6c-6.2-1.7-10.5-7.3-10.7-13.7c-0.1-4.7,0-9.4,0-14c0-0.2,0-0.4,0.1-0.6
		h36.7c0,0.4,0.1,0.8,0.1,1.2c0,3.7-0.2,7.5,0,11.2c0.7,8.4-5.4,15.7-13.8,16.5c-0.1,0-0.2,0-0.4,0c0.1,5,0.3,10,2.9,14.5
		c1.5,3,5,4.4,8.1,3.1c6.2-2.2,11.5-6.2,15.3-11.5c16.3-22.3,4.1-54-23-59.7C64,31.6,44,44.9,39.8,65.4
		c-3.8,18.7,6.8,37.3,24.8,43.5c3,1.1,4.4,3.6,3.3,6.2c-1,2.3-3.6,3.4-5.9,2.4c0,0,0,0,0,0c-8.3-2.8-15.6-7.8-21.2-14.5
		c-22-26.5-8.9-66.9,24.4-75.6c26-6.8,53,10,57.9,36.4c2.9,15.3-0.9,29.1-11.4,40.7c-4.8,5.6-11.2,9.5-18.3,11.3
		c-6.3,1.5-12.9-1.1-16.4-6.6c-2.4-3.8-3.8-8.1-4.3-12.5C72.4,94.3,72.3,91.8,72.1,89.2z"/>
	<path class="st2" d="M71.3,57.3h-6.6c0-1.6,0-3.1,0-4.7c0-1.8,0-3.7,0-5.5c-0.1-1.4,0.9-2.6,2.3-2.7c0.1,0,0.2,0,0.3,0
		c0.6,0,1.3,0,1.9,0.1c1.1,0.1,1.9,0.9,2,2C71.3,50,71.3,53.6,71.3,57.3z"/>
	<path class="st2" d="M89.2,57.3h-6.6c0-1.5,0-3,0-4.5c0-1.8,0-3.6,0-5.4c0-0.3,0-0.6,0-0.9c0.2-1.4,1.4-2.1,3.7-2
		c1.6,0,2.9,0.8,2.9,2.1C89.2,50,89.2,53.6,89.2,57.3z"/>
</g>
</svg>
